%!PS-Adobe-3.0 EPSF-3.0
%%Creator: cairo 1.10.2 (http://cairographics.org)
%%CreationDate: Fri Jul  4 09:21:23 2014
%%Pages: 1
%%BoundingBox: 0 -1 16 6
%%DocumentData: Clean7Bit
%%LanguageLevel: 2
%%EndComments
%%BeginProlog
/cairo_eps_state save def
/dict_count countdictstack def
/op_count count 1 sub def
userdict begin
/q { gsave } bind def
/Q { grestore } bind def
/cm { 6 array astore concat } bind def
/w { setlinewidth } bind def
/J { setlinecap } bind def
/j { setlinejoin } bind def
/M { setmiterlimit } bind def
/d { setdash } bind def
/m { moveto } bind def
/l { lineto } bind def
/c { curveto } bind def
/h { closepath } bind def
/re { exch dup neg 3 1 roll 5 3 roll moveto 0 rlineto
      0 exch rlineto 0 rlineto closepath } bind def
/S { stroke } bind def
/f { fill } bind def
/f* { eofill } bind def
/n { newpath } bind def
/W { clip } bind def
/W* { eoclip } bind def
/BT { } bind def
/ET { } bind def
/pdfmark where { pop globaldict /?pdfmark /exec load put }
    { globaldict begin /?pdfmark /pop load def /pdfmark
    /cleartomark load def end } ifelse
/BDC { mark 3 1 roll /BDC pdfmark } bind def
/EMC { mark /EMC pdfmark } bind def
/cairo_store_point { /cairo_point_y exch def /cairo_point_x exch def } def
/Tj { show currentpoint cairo_store_point } bind def
/TJ {
  {
    dup
    type /stringtype eq
    { show } { -0.001 mul 0 cairo_font_matrix dtransform rmoveto } ifelse
  } forall
  currentpoint cairo_store_point
} bind def
/cairo_selectfont { cairo_font_matrix aload pop pop pop 0 0 6 array astore
    cairo_font exch selectfont cairo_point_x cairo_point_y moveto } bind def
/Tf { pop /cairo_font exch def /cairo_font_matrix where
      { pop cairo_selectfont } if } bind def
/Td { matrix translate cairo_font_matrix matrix concatmatrix dup
      /cairo_font_matrix exch def dup 4 get exch 5 get cairo_store_point
      /cairo_font where { pop cairo_selectfont } if } bind def
/Tm { 2 copy 8 2 roll 6 array astore /cairo_font_matrix exch def
      cairo_store_point /cairo_font where { pop cairo_selectfont } if } bind def
/g { setgray } bind def
/rg { setrgbcolor } bind def
/d1 { setcachedevice } bind def
%%EndProlog
%%Page: 1 1
%%BeginPageSetup
%%PageBoundingBox: 0 -1 16 6
%%EndPageSetup
q 0 -1 16 7 rectclip q
0 5.197 16 -6 re W n
0 g
15.734 2.123 m 12.234 5.126 l 12.234 5.197 l 11.945 5.197 l 11.945 
5.095 l 8.477 2.123 l 7.465 2.123 l 3.996 5.095 l 3.992 5.197 l 3.707 
5.197 l 3.703 5.126 l 0.203 2.123 l 0 2.123 l 0 0.001 l 0.32 0.001 l 
0.32 1.576 l 1.094 1.576 l 1.094 0.001 l 1.461 0.001 l 1.461 1.576 l 
2.285 1.576 l 2.285 0.001 l 2.641 0.001 l 2.641 1.576 l 3.621 1.576 l 
3.582 0.001 l 4.113 0.001 l 4.078 1.576 l 11.863 1.576 l 11.824 0.001 l 
12.355 0.001 l 12.316 1.576 l 13.297 1.576 l 13.297 0.001 l 13.652 
0.001 l 13.652 1.576 l 14.477 1.576 l 14.477 0.001 l 14.84 0.001 l 
14.84 1.576 l 15.617 1.576 l 15.617 0.001 l 15.934 0.001 l 15.934 2.123 
l h
3.633 2.123 m 3.57 2.123 l 3.637 2.271 l h
3.645 2.552 m 3.449 2.123 l 3.145 2.123 l 3.648 2.939 l h
3.656 3.169 m 3.008 2.123 l 2.652 2.123 l 3.664 3.541 l h
3.672 3.751 m 2.5 2.123 l 2.02 2.123 l 3.676 4.08 l h
3.684 4.279 m 1.852 2.123 l 1.273 2.123 l 3.688 4.525 l h
3.691 4.716 m 1.086 2.123 l 0.414 2.123 l 3.699 4.939 l h
4.066 2.123 m 4.062 2.201 l 4.098 2.123 l h
4.215 2.123 m 4.055 2.478 l 4.047 2.888 l 4.52 2.123 l h
4.656 2.123 m 4.043 3.115 l 4.031 3.494 l 5.016 2.123 l h
5.164 2.123 m 4.027 3.709 l 4.02 4.041 l 5.648 2.123 l h
5.816 2.123 m 4.016 4.24 l 4.012 4.49 l 6.395 2.123 l h
6.582 2.123 m 4.004 4.681 l 4 4.912 l 7.254 2.123 l h
11.875 2.123 m 11.84 2.123 l 11.875 2.201 l h
11.883 2.478 m 11.723 2.123 l 11.422 2.123 l 11.895 2.888 l h
11.898 3.115 m 11.281 2.123 l 10.922 2.123 l 11.906 3.494 l h
11.91 3.709 m 10.773 2.123 l 10.289 2.123 l 11.918 4.041 l h
11.922 4.244 m 10.121 2.123 l 9.543 2.123 l 11.93 4.49 l h
11.934 4.681 m 9.355 2.123 l 8.688 2.123 l 11.938 4.912 l h
12.305 2.123 m 12.305 2.271 l 12.371 2.123 l h
12.488 2.123 m 12.297 2.552 l 12.289 2.935 l 12.789 2.119 l h
12.93 2.123 m 12.281 3.169 l 12.273 3.541 l 13.289 2.123 l h
13.438 2.123 m 12.27 3.751 l 12.262 4.08 l 13.922 2.123 l h
14.086 2.123 m 12.258 4.279 l 12.246 4.525 l 14.664 2.123 l h
14.852 2.123 m 12.242 4.716 l 12.242 4.939 l 15.527 2.123 l h
14.852 2.123 m f
Q Q
showpage
%%Trailer
count op_count sub {pop} repeat
countdictstack dict_count sub {end} repeat
cairo_eps_state restore
%%EOF
